{
	"info": {
		"_postman_id": "e3e827f7-e52d-4851-a1ae-162f301a8295",
		"name": "Elastic",
		"schema": "https://schema.getpostman.com/json/collection/v2.1.0/collection.json",
		"_exporter_id": "1333059"
	},
	"item": [
		{
			"name": "Health Check",
			"item": [
				{
					"name": "Check health",
					"request": {
						"method": "GET",
						"header": [],
						"url": {
							"raw": "http://localhost:9200/_cluster/health",
							"protocol": "http",
							"host": [
								"localhost"
							],
							"port": "9200",
							"path": [
								"_cluster",
								"health"
							]
						}
					},
					"response": []
				},
				{
					"name": "Stats",
					"protocolProfileBehavior": {
						"disableBodyPruning": true
					},
					"request": {
						"method": "GET",
						"header": [],
						"body": {
							"mode": "raw",
							"raw": ""
						},
						"url": {
							"raw": "http://localhost:9200/_cluster/stats",
							"protocol": "http",
							"host": [
								"localhost"
							],
							"port": "9200",
							"path": [
								"_cluster",
								"stats"
							]
						}
					},
					"response": []
				}
			]
		},
		{
			"name": "CRUD",
			"item": [
				{
					"name": "Create index employees",
					"request": {
						"method": "PUT",
						"header": [],
						"url": {
							"raw": "http://localhost:9200/employees",
							"protocol": "http",
							"host": [
								"localhost"
							],
							"port": "9200",
							"path": [
								"employees"
							]
						}
					},
					"response": []
				},
				{
					"name": "Add employees data",
					"request": {
						"method": "PUT",
						"header": [],
						"body": {
							"mode": "file",
							"file": {
								"src": "/C:/Users/Rafael_Peretta/Downloads/employees.json"
							}
						},
						"url": {
							"raw": "http://localhost:9200/employees/_bulk",
							"protocol": "http",
							"host": [
								"localhost"
							],
							"port": "9200",
							"path": [
								"employees",
								"_bulk"
							]
						}
					},
					"response": []
				},
				{
					"name": "Get multi employee",
					"protocolProfileBehavior": {
						"disableBodyPruning": true
					},
					"request": {
						"method": "GET",
						"header": [],
						"body": {
							"mode": "raw",
							"raw": "{\"docs\": [{\"_id\": \"m9GVVooBoUR7tnfFkj_T\"},{\"_id\": \"nNGYVooBoUR7tnfFSz93\"}]}",
							"options": {
								"raw": {
									"language": "json"
								}
							}
						},
						"url": {
							"raw": "http://localhost:9200/employees/_mget",
							"protocol": "http",
							"host": [
								"localhost"
							],
							"port": "9200",
							"path": [
								"employees",
								"_mget"
							]
						}
					},
					"response": []
				},
				{
					"name": "Get all employees",
					"request": {
						"method": "GET",
						"header": [],
						"url": {
							"raw": "http://localhost:9200/employees/_search",
							"protocol": "http",
							"host": [
								"localhost"
							],
							"port": "9200",
							"path": [
								"employees",
								"_search"
							]
						}
					},
					"response": []
				},
				{
					"name": "Get employee by id",
					"request": {
						"method": "GET",
						"header": [],
						"url": {
							"raw": "http://localhost:9200/employees/_doc/nNGYVooBoUR7tnfFSz93",
							"protocol": "http",
							"host": [
								"localhost"
							],
							"port": "9200",
							"path": [
								"employees",
								"_doc",
								"nNGYVooBoUR7tnfFSz93"
							]
						}
					},
					"response": []
				},
				{
					"name": "Get employee mapping",
					"request": {
						"method": "GET",
						"header": [],
						"url": {
							"raw": "http://localhost:9200/employees/_mapping",
							"protocol": "http",
							"host": [
								"localhost"
							],
							"port": "9200",
							"path": [
								"employees",
								"_mapping"
							]
						}
					},
					"response": []
				},
				{
					"name": "Update Employee skills",
					"request": {
						"method": "POST",
						"header": [],
						"body": {
							"mode": "raw",
							"raw": "{\r\n  \"doc\": {\r\n    \"skills\": [\r\n        \"Java\",\r\n        \"Azure\",\r\n        \"Elasticsearch\"\r\n    ]\r\n  }\r\n}\r\n",
							"options": {
								"raw": {
									"language": "json"
								}
							}
						},
						"url": {
							"raw": "http://localhost:9200/employees/_update/nNGYVooBoUR7tnfFSz93",
							"protocol": "http",
							"host": [
								"localhost"
							],
							"port": "9200",
							"path": [
								"employees",
								"_update",
								"nNGYVooBoUR7tnfFSz93"
							]
						}
					},
					"response": []
				},
				{
					"name": "Create new employee",
					"request": {
						"method": "POST",
						"header": [],
						"body": {
							"mode": "raw",
							"raw": "{\r\n  \"name\": \"Rafael Santos\",\r\n  \"dob\": \"1990-08-10\",\r\n  \"address\": {\r\n    \"country\": \"Brazil\",\r\n    \"town\": \"Sao Jose dos Campos\"\r\n  },\r\n  \"email\": \"peretta3x@gmail.com\",\r\n  \"skills\": [\r\n    \"Java\",\r\n    \"Azure\"\r\n  ],\r\n  \"experience\": 10,\r\n  \"rating\": 9.2,\r\n  \"description\": \"confident, ambitious, highly motivated Java experience interview learning kotlin\",\r\n  \"verified\": true,\r\n  \"salary\": 30000\r\n}\r\n",
							"options": {
								"raw": {
									"language": "json"
								}
							}
						},
						"url": {
							"raw": "http://localhost:9200/employees/_doc",
							"protocol": "http",
							"host": [
								"localhost"
							],
							"port": "9200",
							"path": [
								"employees",
								"_doc"
							]
						}
					},
					"response": []
				},
				{
					"name": "Delete employee by id",
					"request": {
						"method": "DELETE",
						"header": [],
						"url": {
							"raw": "http://localhost:9200/employees/_doc/h9GLVooBoUR7tnfF6z-O",
							"protocol": "http",
							"host": [
								"localhost"
							],
							"port": "9200",
							"path": [
								"employees",
								"_doc",
								"h9GLVooBoUR7tnfF6z-O"
							]
						}
					},
					"response": []
				}
			]
		},
		{
			"name": "Querying and Aggregating",
			"item": [
				{
					"name": "Get employee motivated",
					"protocolProfileBehavior": {
						"disableBodyPruning": true
					},
					"request": {
						"method": "GET",
						"header": [],
						"body": {
							"mode": "raw",
							"raw": "{\r\n  \"query\": {\r\n    \"match\": {\r\n      \"description\": \"motivated\"\r\n    }\r\n  }\r\n}",
							"options": {
								"raw": {
									"language": "json"
								}
							}
						},
						"url": {
							"raw": "http://localhost:9200/employees/_search",
							"protocol": "http",
							"host": [
								"localhost"
							],
							"port": "9200",
							"path": [
								"employees",
								"_search"
							]
						}
					},
					"response": []
				},
				{
					"name": "Get employee highly motivated",
					"protocolProfileBehavior": {
						"disableBodyPruning": true
					},
					"request": {
						"method": "GET",
						"header": [],
						"body": {
							"mode": "raw",
							"raw": "{\r\n  \"query\": {\r\n    \"match\": {\r\n      \"description\": {\r\n        \"query\": \"highly motivated\",\r\n        \"operator\": \"and\"\r\n      }\r\n    }\r\n  }\r\n}",
							"options": {
								"raw": {
									"language": "json"
								}
							}
						},
						"url": {
							"raw": "http://localhost:9200/employees/_search",
							"protocol": "http",
							"host": [
								"localhost"
							],
							"port": "9200",
							"path": [
								"employees",
								"_search"
							]
						}
					},
					"response": []
				},
				{
					"name": "Get employees learning python",
					"protocolProfileBehavior": {
						"disableBodyPruning": true
					},
					"request": {
						"method": "GET",
						"header": [],
						"body": {
							"mode": "raw",
							"raw": "{\r\n  \"query\": {\r\n    \"multi_match\": {\r\n      \"query\": \"python\",\r\n      \"fields\": [\"skills\", \"description\"]\r\n    }\r\n  }\r\n}",
							"options": {
								"raw": {
									"language": "json"
								}
							}
						},
						"url": {
							"raw": "http://localhost:9200/employees/_search",
							"protocol": "http",
							"host": [
								"localhost"
							],
							"port": "9200",
							"path": [
								"employees",
								"_search"
							]
						}
					},
					"response": []
				},
				{
					"name": "Get employees with experience by range",
					"protocolProfileBehavior": {
						"disableBodyPruning": true
					},
					"request": {
						"method": "GET",
						"header": [],
						"body": {
							"mode": "raw",
							"raw": "{\r\n  \"query\": {\r\n    \"range\": {\r\n      \"experience\": {\r\n        \"gte\": 5,\r\n        \"lte\": 20\r\n      }\r\n    }\r\n  }\r\n}",
							"options": {
								"raw": {
									"language": "json"
								}
							}
						},
						"url": {
							"raw": "http://localhost:9200/employees/_search",
							"protocol": "http",
							"host": [
								"localhost"
							],
							"port": "9200",
							"path": [
								"employees",
								"_search"
							]
						}
					},
					"response": []
				},
				{
					"name": "Get employe by several names",
					"protocolProfileBehavior": {
						"disableBodyPruning": true
					},
					"request": {
						"method": "GET",
						"header": [],
						"body": {
							"mode": "raw",
							"raw": "{\r\n   \"query\": {\r\n    \"terms\": {\r\n      \"name.keyword\": [\"Rafael Peretta\", \"Carey Catlett\"]\r\n    }\r\n  }\r\n}",
							"options": {
								"raw": {
									"language": "json"
								}
							}
						},
						"url": {
							"raw": "http://localhost:9200/employees/_search",
							"protocol": "http",
							"host": [
								"localhost"
							],
							"port": "9200",
							"path": [
								"employees",
								"_search"
							]
						}
					},
					"response": []
				},
				{
					"name": "Get employee by town using wildcard",
					"protocolProfileBehavior": {
						"disableBodyPruning": true
					},
					"request": {
						"method": "GET",
						"header": [],
						"body": {
							"mode": "raw",
							"raw": "{\r\n   \"query\": {\r\n    \"wildcard\": {\r\n      \"address.town\": \"b*y\"\r\n    }\r\n  }\r\n}",
							"options": {
								"raw": {
									"language": "json"
								}
							}
						},
						"url": {
							"raw": "http://localhost:9200/employees/_search",
							"protocol": "http",
							"host": [
								"localhost"
							],
							"port": "9200",
							"path": [
								"employees",
								"_search"
							]
						}
					},
					"response": []
				},
				{
					"name": "Get employee by town eq Batley",
					"protocolProfileBehavior": {
						"disableBodyPruning": true
					},
					"request": {
						"method": "GET",
						"header": [],
						"body": {
							"mode": "raw",
							"raw": "{\r\n  \"query\": {\r\n    \"regexp\": {\r\n      \"address.town\": {\r\n        \"value\": \"b.{4}y\"\r\n      }\r\n    }\r\n  }\r\n}\r\n",
							"options": {
								"raw": {
									"language": "json"
								}
							}
						},
						"url": {
							"raw": "http://localhost:9200/employees/_search",
							"protocol": "http",
							"host": [
								"localhost"
							],
							"port": "9200",
							"path": [
								"employees",
								"_search"
							]
						}
					},
					"response": []
				},
				{
					"name": "Get employee by town using fuzzy",
					"protocolProfileBehavior": {
						"disableBodyPruning": true
					},
					"request": {
						"method": "GET",
						"header": [],
						"body": {
							"mode": "raw",
							"raw": "{\r\n  \"query\": {\r\n    \"fuzzy\": {\r\n      \"address.town\": {\r\n        \"value\": \"Bately\",\r\n        \"fuzziness\": 2\r\n      }\r\n    }\r\n  }\r\n}",
							"options": {
								"raw": {
									"language": "json"
								}
							}
						},
						"url": {
							"raw": "http://localhost:9200/employees/_search",
							"protocol": "http",
							"host": [
								"localhost"
							],
							"port": "9200",
							"path": [
								"employees",
								"_search"
							]
						}
					},
					"response": []
				}
			]
		},
		{
			"name": "Aggregates",
			"item": [
				{
					"name": "Aggregate employees by skills",
					"protocolProfileBehavior": {
						"disableBodyPruning": true
					},
					"request": {
						"method": "GET",
						"header": [],
						"body": {
							"mode": "raw",
							"raw": "{\r\n  \"size\": 0,\r\n  \"aggs\": {\r\n    \"skills_agg\": {\r\n      \"terms\": {\r\n        \"field\": \"skills.keyword\"\r\n      }\r\n    }\r\n  }\r\n}",
							"options": {
								"raw": {
									"language": "json"
								}
							}
						},
						"url": {
							"raw": "http://localhost:9200/employees/_search",
							"protocol": "http",
							"host": [
								"localhost"
							],
							"port": "9200",
							"path": [
								"employees",
								"_search"
							]
						}
					},
					"response": []
				},
				{
					"name": "Aggregate verified employees by skills",
					"protocolProfileBehavior": {
						"disableBodyPruning": true
					},
					"request": {
						"method": "GET",
						"header": [],
						"body": {
							"mode": "raw",
							"raw": "{\r\n  \"size\": 0,\r\n  \"query\": {\r\n    \"bool\": {\r\n      \"filter\": [\r\n        {\r\n          \"term\": {\r\n            \"verified\": true\r\n          }\r\n        }\r\n      ]\r\n    }\r\n  },\r\n  \"aggs\": {\r\n    \"skills_agg\": {\r\n      \"terms\": {\r\n        \"field\": \"skills.keyword\"\r\n      }\r\n    }\r\n  }\r\n}",
							"options": {
								"raw": {
									"language": "json"
								}
							}
						},
						"url": {
							"raw": "http://localhost:9200/employees/_search",
							"protocol": "http",
							"host": [
								"localhost"
							],
							"port": "9200",
							"path": [
								"employees",
								"_search"
							]
						}
					},
					"response": []
				},
				{
					"name": "Aggregate verified employees by skills with avg metric",
					"protocolProfileBehavior": {
						"disableBodyPruning": true
					},
					"request": {
						"method": "GET",
						"header": [],
						"body": {
							"mode": "raw",
							"raw": "{\r\n  \"size\": 0,\r\n  \"query\": {\r\n    \"bool\": {\r\n      \"filter\": [\r\n        {\r\n          \"term\": {\r\n            \"verified\": true\r\n          }\r\n        }\r\n      ]\r\n    }\r\n  },\r\n  \"aggs\": {\r\n    \"skills_agg\": {\r\n      \"terms\": {\r\n        \"field\": \"skills.keyword\"\r\n      },\r\n      \"aggs\": {\r\n        \"avg_rating\": {\r\n          \"avg\": {\r\n            \"field\": \"rating\"\r\n          }\r\n        }\r\n      }\r\n    }\r\n  }\r\n}",
							"options": {
								"raw": {
									"language": "json"
								}
							}
						},
						"url": {
							"raw": "http://localhost:9200/employees/_search",
							"protocol": "http",
							"host": [
								"localhost"
							],
							"port": "9200",
							"path": [
								"employees",
								"_search"
							]
						}
					},
					"response": []
				},
				{
					"name": "Aggregate verified employees by skills with stats rating",
					"protocolProfileBehavior": {
						"disableBodyPruning": true
					},
					"request": {
						"method": "GET",
						"header": [],
						"body": {
							"mode": "raw",
							"raw": "{\r\n  \"size\": 0,\r\n  \"query\": {\r\n    \"bool\": {\r\n      \"filter\": [\r\n        {\r\n          \"term\": {\r\n            \"verified\": true\r\n          }\r\n        }\r\n      ]\r\n    }\r\n  },\r\n  \"aggs\": {\r\n    \"skills_agg\": {\r\n      \"terms\": {\r\n        \"field\": \"skills.keyword\",\r\n        \"order\": {\r\n          \"rating_stats.avg\": \"desc\"\r\n        }\r\n      },\r\n      \"aggs\": {\r\n        \"rating_stats\": {\r\n          \"stats\": {\r\n            \"field\": \"rating\"\r\n          }\r\n        }\r\n      }\r\n    }\r\n  }\r\n}",
							"options": {
								"raw": {
									"language": "json"
								}
							}
						},
						"url": {
							"raw": "http://localhost:9200/employees/_search",
							"protocol": "http",
							"host": [
								"localhost"
							],
							"port": "9200",
							"path": [
								"employees",
								"_search"
							]
						}
					},
					"response": []
				}
			]
		},
		{
			"name": "Joining",
			"item": [
				{
					"name": "Create post comments index",
					"request": {
						"method": "PUT",
						"header": [],
						"body": {
							"mode": "raw",
							"raw": "{\r\n  \"mappings\": {\r\n    \"properties\": {\r\n      \"_join_type\": { \r\n        \"type\": \"join\",\r\n        \"relations\": {\r\n          \"post\": \"comment\" \r\n        }\r\n      }\r\n    }\r\n  }\r\n}\r\n",
							"options": {
								"raw": {
									"language": "json"
								}
							}
						},
						"url": {
							"raw": "http://localhost:9200/post-comments",
							"protocol": "http",
							"host": [
								"localhost"
							],
							"port": "9200",
							"path": [
								"post-comments"
							]
						}
					},
					"response": []
				},
				{
					"name": "Add new post 1 to post-comments",
					"request": {
						"method": "PUT",
						"header": [],
						"body": {
							"mode": "raw",
							"raw": "{\r\n\"_join_type\": {\r\n    \"name\": \"post\" \r\n  },\r\n\"post_title\" : \"Angel Has Fallen\"\r\n}\r\n",
							"options": {
								"raw": {
									"language": "json"
								}
							}
						},
						"url": {
							"raw": "http://localhost:9200/post-comments/_doc/1",
							"protocol": "http",
							"host": [
								"localhost"
							],
							"port": "9200",
							"path": [
								"post-comments",
								"_doc",
								"1"
							]
						}
					},
					"response": []
				},
				{
					"name": "Add new post 2 to post-comments",
					"request": {
						"method": "PUT",
						"header": [],
						"body": {
							"mode": "raw",
							"raw": "{\r\n\"_join_type\": {\r\n    \"name\": \"post\" \r\n  },\r\n\"post_title\" : \"Beauty and the beast - a nice movie\"\r\n}\r\n",
							"options": {
								"raw": {
									"language": "json"
								}
							}
						},
						"url": {
							"raw": "http://localhost:9200/post-comments/_doc/2",
							"protocol": "http",
							"host": [
								"localhost"
							],
							"port": "9200",
							"path": [
								"post-comments",
								"_doc",
								"2"
							]
						}
					},
					"response": []
				},
				{
					"name": "Add comments to post 1 A",
					"request": {
						"method": "PUT",
						"header": [],
						"body": {
							"mode": "raw",
							"raw": "{\r\n\"_join_type\": {\r\n\"name\": \"comment\",\r\n\"parent\": \"1\"\r\n},\r\n\"comment_author\": \"Neil Soans\",\r\n\"comment_description\": \"'Angel has Fallen' has some redeeming qualities, but they're too few and far in between to justify its existence\"\r\n}\r\n",
							"options": {
								"raw": {
									"language": "json"
								}
							}
						},
						"url": {
							"raw": "http://localhost:9200/post-comments/_doc/A?routing=1",
							"protocol": "http",
							"host": [
								"localhost"
							],
							"port": "9200",
							"path": [
								"post-comments",
								"_doc",
								"A"
							],
							"query": [
								{
									"key": "routing",
									"value": "1"
								}
							]
						}
					},
					"response": []
				},
				{
					"name": "Add comments to post 1 B",
					"request": {
						"method": "PUT",
						"header": [],
						"body": {
							"mode": "raw",
							"raw": "{\r\n  \"_join_type\": {\r\n    \"name\": \"comment\",\r\n    \"parent\": \"1\"\r\n  },\r\n  \"comment_author\": \"Exiled Universe\",\r\n  \"comment_description\": \"Best in the trilogy! This movie wasn't better than the Rambo movie but it was very very close.\"\r\n}\r\n",
							"options": {
								"raw": {
									"language": "json"
								}
							}
						},
						"url": {
							"raw": "http://localhost:9200/post-comments/_doc/B?routing=1",
							"protocol": "http",
							"host": [
								"localhost"
							],
							"port": "9200",
							"path": [
								"post-comments",
								"_doc",
								"B"
							],
							"query": [
								{
									"key": "routing",
									"value": "1"
								}
							]
						}
					},
					"response": []
				},
				{
					"name": "Add comments to post 2 C",
					"request": {
						"method": "PUT",
						"header": [],
						"body": {
							"mode": "raw",
							"raw": "{\r\n\"_join_type\": {\r\n\"name\": \"comment\",\r\n\"parent\": \"2\"\r\n},\r\n\"comment_author\": \"Emma Cochrane\",\r\n\"comment_description\": \"There's the sublime beauty of a forgotten world and the promise of happily-ever-after to draw you to one of your favourite fairy tales, once again. Give it an encore.\"\r\n}\r\n",
							"options": {
								"raw": {
									"language": "json"
								}
							}
						},
						"url": {
							"raw": "http://localhost:9200/post-comments/_doc/C?routing=2",
							"protocol": "http",
							"host": [
								"localhost"
							],
							"port": "9200",
							"path": [
								"post-comments",
								"_doc",
								"C"
							],
							"query": [
								{
									"key": "routing",
									"value": "2"
								}
							]
						}
					},
					"response": []
				},
				{
					"name": "Add comments to post 2 D",
					"request": {
						"method": "PUT",
						"header": [],
						"body": {
							"mode": "raw",
							"raw": "{\r\n\"_join_type\": {\r\n\"name\": \"comment\",\r\n\"parent\": \"2\"\r\n},\r\n\"comment_author\": \"Common Sense Media Editors\",\r\n\"comment_description\": \"Stellar music, brisk storytelling, delightful animation, and compelling characters make this both a great animated feature for kids and a great movie for anyone\"\r\n}\r\n",
							"options": {
								"raw": {
									"language": "json"
								}
							}
						},
						"url": {
							"raw": "http://localhost:9200/post-comments/_doc/D?routing=2",
							"protocol": "http",
							"host": [
								"localhost"
							],
							"port": "9200",
							"path": [
								"post-comments",
								"_doc",
								"D"
							],
							"query": [
								{
									"key": "routing",
									"value": "2"
								}
							]
						}
					},
					"response": []
				},
				{
					"name": "Query child documents and returns parents",
					"protocolProfileBehavior": {
						"disableBodyPruning": true
					},
					"request": {
						"method": "GET",
						"header": [],
						"body": {
							"mode": "raw",
							"raw": "{\r\n  \"query\": {\r\n    \"has_child\": {\r\n      \"type\": \"comment\",\r\n      \"query\": {\r\n        \"match\": {\r\n          \"comment_description\": \"music\"\r\n        }\r\n      }\r\n    }\r\n  }\r\n}",
							"options": {
								"raw": {
									"language": "json"
								}
							}
						},
						"url": {
							"raw": "http://localhost:9200/post-comments/_search",
							"protocol": "http",
							"host": [
								"localhost"
							],
							"port": "9200",
							"path": [
								"post-comments",
								"_search"
							]
						}
					},
					"response": []
				},
				{
					"name": "Query parent documents and returns child",
					"protocolProfileBehavior": {
						"disableBodyPruning": true
					},
					"request": {
						"method": "GET",
						"header": [],
						"body": {
							"mode": "raw",
							"raw": "{\r\n  \"query\": {\r\n    \"has_parent\": {\r\n      \"parent_type\": \"post\",\r\n      \"query\": {\r\n        \"match\": {\r\n          \"post_title\": \"Beauty\"\r\n        }\r\n      }\r\n    }\r\n  }\r\n}",
							"options": {
								"raw": {
									"language": "json"
								}
							}
						},
						"url": {
							"raw": "http://localhost:9200/post-comments/_search",
							"protocol": "http",
							"host": [
								"localhost"
							],
							"port": "9200",
							"path": [
								"post-comments",
								"_search"
							]
						}
					},
					"response": []
				}
			]
		},
		{
			"name": "Suggesting",
			"item": [
				{
					"name": "Suggesting query",
					"protocolProfileBehavior": {
						"disableBodyPruning": true
					},
					"request": {
						"method": "GET",
						"header": [],
						"body": {
							"mode": "raw",
							"raw": "{\r\n  \"suggest\": {\r\n    \"description_suggest\": {\r\n      \"text\": \"Beauti\",\r\n      \"term\": {\r\n        \"field\": \"post_title\"\r\n      }\r\n    }\r\n  }\r\n}",
							"options": {
								"raw": {
									"language": "json"
								}
							}
						},
						"url": {
							"raw": "http://localhost:9200/post-comments/_search",
							"protocol": "http",
							"host": [
								"localhost"
							],
							"port": "9200",
							"path": [
								"post-comments",
								"_search"
							]
						}
					},
					"response": []
				}
			]
		},
		{
			"name": "Java Low Level API",
			"item": [
				{
					"name": "Create new employee",
					"request": {
						"method": "POST",
						"header": [],
						"body": {
							"mode": "raw",
							"raw": "{\r\n  \"name\": \"Karla Adamowicz de Moraes 2\",\r\n  \"dob\": \"1991-11-04\",\r\n  \"address\": {\r\n    \"country\": \"Brazil\",\r\n    \"town\": \"Sao Paulo\"\r\n  },\r\n  \"email\": \"adamowiczkarla@gmail.com\",\r\n  \"skills\": [\r\n    \"JIRA\",\r\n    \"Excel\",\r\n    \"Scrum\",\r\n    \"Management\"\r\n  ],\r\n  \"experience\": 10,\r\n  \"rating\": 9.2,\r\n  \"description\": \"confident, ambitious, highly motivated Java experience interview learning kotlin\",\r\n  \"verified\": true,\r\n  \"salary\": 30000\r\n}\r\n",
							"options": {
								"raw": {
									"language": "json"
								}
							}
						},
						"url": {
							"raw": "http://localhost:8080/employees",
							"protocol": "http",
							"host": [
								"localhost"
							],
							"port": "8080",
							"path": [
								"employees"
							]
						}
					},
					"response": []
				},
				{
					"name": "Update employee",
					"request": {
						"method": "PUT",
						"header": [],
						"body": {
							"mode": "raw",
							"raw": "{\r\n\"skills\": [\r\n            \"JIRA\"\r\n        ]\r\n}",
							"options": {
								"raw": {
									"language": "json"
								}
							}
						},
						"url": {
							"raw": "http://localhost:8080/employees/odGaYYoBoUR7tnfF4D-K",
							"protocol": "http",
							"host": [
								"localhost"
							],
							"port": "8080",
							"path": [
								"employees",
								"odGaYYoBoUR7tnfF4D-K"
							]
						}
					},
					"response": []
				},
				{
					"name": "Get all employees",
					"request": {
						"method": "GET",
						"header": [],
						"url": {
							"raw": "http://localhost:8080/employees/search?field=name&value=Karla",
							"protocol": "http",
							"host": [
								"localhost"
							],
							"port": "8080",
							"path": [
								"employees",
								"search"
							],
							"query": [
								{
									"key": "field",
									"value": "name"
								},
								{
									"key": "value",
									"value": "Karla"
								}
							]
						}
					},
					"response": []
				},
				{
					"name": "Search employee by any field",
					"request": {
						"method": "GET",
						"header": [],
						"url": {
							"raw": "http://localhost:8080/employees/search?field=name&value=Karla",
							"protocol": "http",
							"host": [
								"localhost"
							],
							"port": "8080",
							"path": [
								"employees",
								"search"
							],
							"query": [
								{
									"key": "field",
									"value": "name"
								},
								{
									"key": "value",
									"value": "Karla"
								}
							]
						}
					},
					"response": []
				},
				{
					"name": "Get metric aggregation",
					"request": {
						"method": "GET",
						"header": [],
						"url": {
							"raw": "http://localhost:8080/employees/search?field=name&value=Karla",
							"protocol": "http",
							"host": [
								"localhost"
							],
							"port": "8080",
							"path": [
								"employees",
								"search"
							],
							"query": [
								{
									"key": "field",
									"value": "name"
								},
								{
									"key": "value",
									"value": "Karla"
								}
							]
						}
					},
					"response": []
				},
				{
					"name": "Get employee by id",
					"request": {
						"method": "GET",
						"header": [],
						"url": {
							"raw": "http://localhost:8080/employees/ntHOYIoBoUR7tnfFpz8l",
							"protocol": "http",
							"host": [
								"localhost"
							],
							"port": "8080",
							"path": [
								"employees",
								"ntHOYIoBoUR7tnfFpz8l"
							]
						}
					},
					"response": []
				},
				{
					"name": "Delete employee by id",
					"request": {
						"method": "DELETE",
						"header": [],
						"url": {
							"raw": "http://localhost:8080/employees/ndHOYIoBoUR7tnfFdz8i",
							"protocol": "http",
							"host": [
								"localhost"
							],
							"port": "8080",
							"path": [
								"employees",
								"ndHOYIoBoUR7tnfFdz8i"
							]
						}
					},
					"response": []
				}
			]
		}
	]
}